1711	-18.51	198
1712	-16.89	340
1714	-26.58	315
1715	-23.99	363
1716	-31.81	272
1758	-19.51	361
1759	-25.36	363
1760	-22.06	352
1761	-23.01	359
1762	-21.84	333
1763	-15.96	322
1764	-22.84	366
1765	-21.98	365
1766	-22.83	364
1767	-20.92	365
1768	-20.07	365
1769	-23.45	365
1770	-29.08	365
1771	-25.28	365
1772	-17.35	354
1773	-24.74	365
1774	-23.55	364
1775	-25.61	365
1776	-24.54	366
1777	-22.65	360
1778	-24.58	334
1779	-27.48	364
1780	-25.79	366
1781	-24.60	362
1782	-21.09	365
1783	-18.11	363
1784	-22.14	366
1785	-22.10	364
1786	-20.31	365
1787	-20.30	364
1788	-22.33	365
1789	-20.47	360
1790	-23.43	359
1807	-10.66	353
1808	-20.30	353
1809	-12.39	351
1810	-12.26	351
1811	 -9.48	352
1812	-10.47	363
1813	-15.65	358
1814	-13.36	362
1815	-13.93	364
1816	 -9.98	363
1817	-12.54	364
1818	-10.07	365
1819	-12.52	364
1820	-15.31	363
1821	 -9.67	364
1822	-13.32	361
1823	-14.41	360
1824	-14.94	361
1825	-18.50	365
1826	-18.93	363
1827	-20.05	364
1828	-12.79	366
1829	-16.03	365
1830	-18.09	360
1831	-12.71	358
1832	-21.77	363
1833	-17.92	361
1834	-19.97	362
1835	-19.07	365
1846	-12.48	362
1847	-14.92	365
1848	-10.87	366
1849	-12.52	365
1850	-16.04	365
1851	-16.87	365
1852	 -9.20	366
1853	-10.73	365
1854	-18.65	365
1855	-14.32	365
1856	 -9.69	366
1860	 -9.03	305
1861	-13.05	353
1862	-12.85	348
1863	-17.05	243
1864	-13.12	306
1865	-11.65	365
1866	-10.95	365
1867	-13.85	344
1868	-15.34	349
1869	-15.59	365
1870	-17.92	365
1871	-15.82	365
1872	 -9.16	357
1873	-13.09	365
1874	-17.90	354
1875	-13.51	365
1876	 -8.95	366
1877	 -8.48	334
1878	 -9.45	333
1879	 -9.06	365
1880	-11.77	366
1881	 -9.08	365
1882	-10.11	365
1883	-10.84	365
1884	-12.75	366
1885	-10.53	365
1886	 -7.99	365
1887	-15.23	365
1888	-13.23	366
1889	-17.47	365
1890	-18.61	365
1891	-16.65	338
1892	-14.95	366
1893	-14.90	365
1894	-16.04	365
1895	-11.75	365
1896	-18.74	366
1897	-13.99	364
1898	-17.21	365
1899	-13.64	365
1900	-14.31	365
1901	-16.10	365
1902	-16.01	365
1903	-10.58	365
1904	-14.05	366
1905	-15.54	365
1906	-17.52	365
1907	-16.41	335
1908	-16.17	366
1909	-14.17	365
1910	 -9.28	352
1911	-11.44	359
1912	 -5.06	366
1913	 -3.09	365
1914	 -2.88	365
1915	 -6.27	365
1916	 -3.93	366
1917	-12.64	333
1918	-10.07	365
1919	-13.58	365
1920	 -9.72	363
1921	-15.52	365
1922	-13.56	359
1923	-15.35	356
1924	 -8.34	366
1925	-10.14	365
1926	 -8.81	365
1927	 -7.18	365
1928	 -7.54	366
1929	-14.35	365
1930	 -5.68	365
1931	 -8.42	365
1932	 -7.92	366
1933	 -9.24	365
1934	-11.84	365
1935	 -9.87	365
1936	 -4.10	366
1937	 -5.36	304
1938	-12.40	361
1939	 -6.98	365
1940	 -6.10	358
1941	 -4.92	365
1942	 -5.18	365
1943	 -3.95	365
1953	-10.57	365
1954	 -8.43	365
1955	 -5.53	365
1956	-13.31	366
1957	 -9.30	365
1958	 -6.53	365
1959	 -6.35	365
1960	 -1.04	366
1961	 -2.58	365
1962	 -6.96	365
1963	 -4.41	365
1964	-10.49	366
1965	 -2.66	365
1966	  2.49	365
1967	 -3.24	365
1968	  0.64	366
1969	 -0.82	365
1970	 -5.84	365
1971	 -7.34	365
1972	 -4.90	366
1973	 -9.35	365
1974	 -5.18	365
1975	-10.63	365
1976	 -7.15	366
1977	 -2.69	365
1978	 -4.84	365
1979	 -4.38	365
1980	 -6.07	317
1981	 -3.50	357
1982	 -4.12	325
1983	 -1.96	365
1984	 -2.75	366
1985	 -0.98	365
1986	 -5.16	365
1987	 -1.68	365
1988	 -0.68	366
1989	  0.79	365
1990	 -1.28	365
1991	 -2.95	365
1992	 -0.79	366
1993	  0.85	356
1994	  3.68	365
1995	  2.81	365
1996	  1.68	366
1997	  3.03	365
1998	  1.76	365
1999	  1.45	365
2000	  4.52	361
2001	  3.00	365
2002	  4.95	365
2003	  4.02	365
2004	  2.66	366
2005	 -1.71	365
2006	  2.62	365
2007	  1.23	365
2008	  3.59	350
